Exp 6/data/ALL0005/F0005CH1.CSV

Record Length,2.500000e+03,,  -0.336000000000,   3.12000,
Sample Interval,4.000000e-04,,  -0.335600000000,   3.14000,
Trigger Point,8.400000000000e+02,,  -0.335200000000,   3.12000,
,,,  -0.334800000000,   3.12000,
,,,  -0.334400000000,   3.12000,
,,,  -0.334000000000,   3.12000,
Source,CH1,,  -0.333600000000,   3.14000,
Vertical Units,V,,  -0.333200000000,   3.12000,
Vertical Scale,5.000000e-01,,  -0.332800000000,   3.12000,
Vertical Offset,-2.720000e+00,,  -0.332400000000,   3.12000,
Horizontal Units,s,,  -0.332000000000,   3.12000,
Horizontal Scale,1.000000e-01,,  -0.331600000000,   3.12000,
Pt Fmt,Y,,  -0.331200000000,   3.12000,
Yzero,0.000000e+00,,  -0.330800000000,   3.10000,
Probe Atten,1.000000e+00,,  -0.330400000000,   3.12000,
Model Number,TDS2002C,,  -0.330000000000,   3.10000,
Serial Number,C014116,,  -0.329600000000,   3.10000,
Firmware Version,FV:v24.15,,  -0.329200000000,   3.10000,
,,,-00.328800000000,   3.10000,
,,,-00.328400000000,   3.10000,
,,,-00.328000000000,   3.10000,
,,,-00.327600000000,   3.10000,
,,,-00.327200000000,   3.12000,
,,,-00.326800000000,   3.12000,
,,,-00.326400000000,   3.10000,
,,,-00.326000000000,   3.10000,
,,,-00.325600000000,   3.10000,
,,,-00.325200000000,   3.10000,
,,,-00.324800000000,   3.08000,
,,,-00.324400000000,   3.10000,
,,,-00.324000000000,   3.10000,
,,,-00.323600000000,   3.10000,
,,,-00.323200000000,   3.08000,
,,,-00.322800000000,   3.06000,
,,,-00.322400000000,   3.08000,
,,,-00.322000000000,   3.06000,
,,,-00.321600000000,   3.08000,
,,,-00.321200000000,   3.08000,
,,,-00.320800000000,   3.08000,
,,,-00.320400000000,   3.08000,
,,,-00.320000000000,   3.08000,
,,,-00.319600000000,   3.08000,
,,,-00.319200000000,   3.08000,
,,,-00.318800000000,   3.06000,
,,,-00.318400000000,   3.10000,
,,,-00.318000000000,   3.08000,
,,,-00.317600000000,   3.06000,
,,,-00.317200000000,   3.06000,
,,,-00.316800000000,   3.08000,
,,,-00.316400000000,   3.06000,
,,,-00.316000000000,   3.06000,
,,,-00.315600000000,   3.06000,
,,,-00.315200000000,   3.06000,
,,,-00.314800000000,   3.06000,
,,,-00.314400000000,   3.06000,
,,,-00.314000000000,   3.06000,
,,,-00.313600000000,   3.04000,
,,,-00.313200000000,   3.06000,
,,,-00.312800000000,   3.06000,
,,,-00.312400000000,   3.04000,
,,,-00.312000000000,   3.06000,
,,,-00.311600000000,   3.06000,
,,,-00.311200000000,   3.04000,
,,,-00.310800000000,   3.04000,
,,,-00.310400000000,   3.04000,
,,,-00.310000000000,   3.04000,
,,,-00.309600000000,   3.04000,
,,,-00.309200000000,   3.04000,
,,,-00.308800000000,   3.04000,
,,,-00.308400000000,   3.04000,
,,,-00.308000000000,   3.02000,
,,,-00.307600000000,   3.04000,
,,,-00.307200000000,   3.04000,
,,,-00.306800000000,   3.04000,
,,,-00.306400000000,   3.04000,
,,,-00.306000000000,   3.02000,
,,,-00.305600000000,   3.04000,
,,,-00.305200000000,   3.02000,
,,,-00.304800000000,   3.04000,
,,,-00.304400000000,   3.04000,
,,,-00.304000000000,   3.04000,
,,,-00.303600000000,   3.02000,
,,,-00.303200000000,   3.04000,
,,,-00.302800000000,   3.02000,
,,,-00.302400000000,   3.00000,
,,,-00.302000000000,   3.00000,
,,,-00.301600000000,   3.00000,
,,,-00.301200000000,   3.00000,
,,,-00.300800000000,   3.02000,
,,,-00.300400000000,   3.02000,
,,,-00.300000000000,   3.00000,
,,,-00.299600000000,   3.00000,
,,,-00.299200000000,   3.02000,
,,,-00.298800000000,   3.00000,
,,,-00.298400000000,   3.00000,
,,,-00.298000000000,   3.02000,
,,,-00.297600000000,   2.98000,
,,,-00.297200000000,   3.00000,
,,,-00.296800000000,   3.00000,
,,,-00.296400000000,   3.00000,
,,,-00.296000000000,   3.00000,
,,,-00.295600000000,   2.98000,
,,,-00.295200000000,   3.00000,
,,,-00.294800000000,   3.00000,
,,,-00.294400000000,   2.98000,
,,,-00.294000000000,   3.00000,
,,,-00.293600000000,   2.98000,
,,,-00.293200000000,   3.00000,
,,,-00.292800000000,   2.98000,
,,,-00.292400000000,   3.00000,
,,,-00.292000000000,   2.98000,
,,,-00.291600000000,   2.98000,
,,,-00.291200000000,   2.98000,
,,,-00.290800000000,   2.98000,
,,,-00.290400000000,   2.98000,
,,,-00.290000000000,   2.96000,
,,,-00.289600000000,   2.98000,
,,,-00.289200000000,   2.98000,
,,,-00.288800000000,   2.98000,
,,,-00.288400000000,   2.98000,
,,,-00.288000000000,   2.98000,
,,,-00.287600000000,   2.98000,
,,,-00.287200000000,   2.98000,
,,,-00.286800000000,   2.98000,
,,,-00.286400000000,   2.98000,
,,,-00.286000000000,   2.98000,
,,,-00.285600000000,   2.96000,
,,,-00.285200000000,   2.98000,
,,,-00.284800000000,   2.98000,
,,,-00.284400000000,   2.96000,
,,,-00.284000000000,   2.96000,
,,,-00.283600000000,   2.96000,
,,,-00.283200000000,   2.96000,
,,,-00.282800000000,   2.96000,
,,,-00.282400000000,   2.96000,
,,,-00.282000000000,   2.96000,
,,,-00.281600000000,   2.94000,
,,,-00.281200000000,   2.94000,
,,,-00.280800000000,   2.94000,
,,,-00.280400000000,   2.94000,
,,,-00.280000000000,   2.94000,
,,,-00.279600000000,   2.94000,
,,,-00.279200000000,   2.94000,
,,,-00.278800000000,   2.96000,
,,,-00.278400000000,   2.94000,
,,,-00.278000000000,   2.96000,
,,,-00.277600000000,   2.96000,
,,,-00.277200000000,   2.94000,
,,,-00.276800000000,   2.94000,
,,,-00.276400000000,   2.94000,
,,,-00.276000000000,   2.92000,
,,,-00.275600000000,   2.94000,
,,,-00.275200000000,   2.94000,
,,,-00.274800000000,   2.92000,
,,,-00.274400000000,   2.92000,
,,,-00.274000000000,   2.94000,
,,,-00.273600000000,   2.92000,
,,,-00.273200000000,   2.94000,
,,,-00.272800000000,   2.94000,
,,,-00.272400000000,   2.92000,
,,,-00.272000000000,   2.94000,
,,,-00.271600000000,   2.92000,
,,,-00.271200000000,   2.94000,
,,,-00.270800000000,   2.92000,
,,,-00.270400000000,   2.92000,
,,,-00.270000000000,   2.92000,
,,,-00.269600000000,   2.92000,
,,,-00.269200000000,   2.92000,
,,,-00.268800000000,   2.92000,
,,,-00.268400000000,   2.92000,
,,,-00.268000000000,   2.90000,
,,,-00.267600000000,   2.92000,
,,,-00.267200000000,   2.92000,
,,,-00.266800000000,   2.92000,
,,,-00.266400000000,   2.92000,
,,,-00.266000000000,   2.92000,
,,,-00.265600000000,   2.92000,
,,,-00.265200000000,   2.92000,
,,,-00.264800000000,   2.92000,
,,,-00.264400000000,   2.92000,
,,,-00.264000000000,   2.90000,
,,,-00.263600000000,   2.90000,
,,,-00.263200000000,   2.90000,
,,,-00.262800000000,   2.90000,
,,,-00.262400000000,   2.90000,
,,,-00.262000000000,   2.90000,
,,,-00.261600000000,   2.88000,
,,,-00.261200000000,   2.88000,
,,,-00.260800000000,   2.90000,
,,,-00.260400000000,   2.90000,
,,,-00.260000000000,   2.88000,
,,,-00.259600000000,   2.88000,
,,,-00.259200000000,   2.88000,
,,,-00.258800000000,   2.90000,
,,,-00.258400000000,   2.90000,
,,,-00.258000000000,   2.86000,
,,,-00.257600000000,   2.90000,
,,,-00.257200000000,   2.86000,
,,,-00.256800000000,   2.88000,
,,,-00.256400000000,   2.86000,
,,,-00.256000000000,   2.88000,
,,,-00.255600000000,   2.86000,
,,,-00.255200000000,   2.86000,
,,,-00.254800000000,   2.86000,
,,,-00.254400000000,   2.86000,
,,,-00.254000000000,   2.86000,
,,,-00.253600000000,   2.88000,
,,,-00.253200000000,   2.86000,
,,,-00.252800000000,   2.88000,
,,,-00.252400000000,   2.86000,
,,,-00.252000000000,   2.86000,
,,,-00.251600000000,   2.88000,
,,,-00.251200000000,   2.88000,
,,,-00.250800000000,   2.86000,
,,,-00.250400000000,   2.86000,
,,,-00.250000000000,   2.86000,
,,,-00.249600000000,   2.86000,
,,,-00.249200000000,   2.84000,
,,,-00.248800000000,   2.86000,
,,,-00.248400000000,   2.86000,
,,,-00.248000000000,   2.84000,
,,,-00.247600000000,   2.86000,
,,,-00.247200000000,   2.86000,
,,,-00.246800000000,   2.86000,
,,,-00.246400000000,   2.86000,
,,,-00.246000000000,   2.86000,
,,,-00.245600000000,   2.84000,
,,,-00.245200000000,   2.86000,
,,,-00.244800000000,   2.84000,
,,,-00.244400000000,   2.84000,
,,,-00.244000000000,   2.84000,
,,,-00.243600000000,   2.84000,
,,,-00.243200000000,   2.84000,
,,,-00.242800000000,   2.84000,
,,,-00.242400000000,   2.84000,
,,,-00.242000000000,   2.86000,
,,,-00.241600000000,   2.82000,
,,,-00.241200000000,   2.84000,
,,,-00.240800000000,   2.82000,
,,,-00.240400000000,   2.82000,
,,,-00.240000000000,   2.82000,
,,,-00.239600000000,   2.82000,
,,,-00.239200000000,   2.82000,
,,,-00.238800000000,   2.82000,
,,,-00.238400000000,   2.84000,
,,,-00.238000000000,   2.82000,
,,,-00.237600000000,   2.82000,
,,,-00.237200000000,   2.82000,
,,,-00.236800000000,   2.82000,
,,,-00.236400000000,   2.82000,
,,,-00.236000000000,   2.80000,
,,,-00.235600000000,   2.82000,
,,,-00.235200000000,   2.80000,
,,,-00.234800000000,   2.80000,
,,,-00.234400000000,   2.80000,
,,,-00.234000000000,   2.80000,
,,,-00.233600000000,   2.80000,
,,,-00.233200000000,   2.80000,
,,,-00.232800000000,   2.80000,
,,,-00.232400000000,   2.80000,
,,,-00.232000000000,   2.80000,
,,,-00.231600000000,   2.82000,
,,,-00.231200000000,   2.80000,
,,,-00.230800000000,   2.80000,
,,,-00.230400000000,   2.82000,
,,,-00.230000000000,   2.80000,
,,,-00.229600000000,   2.80000,
,,,-00.229200000000,   2.80000,
,,,-00.228800000000,   2.80000,
,,,-00.228400000000,   2.80000,
,,,-00.228000000000,   2.78000,
,,,-00.227600000000,   2.82000,
,,,-00.227200000000,   2.78000,
,,,-00.226800000000,   2.78000,
,,,-00.226400000000,   2.80000,
,,,-00.226000000000,   2.78000,
,,,-00.225600000000,   2.78000,
,,,-00.225200000000,   2.80000,
,,,-00.224800000000,   2.78000,
,,,-00.224400000000,   2.78000,
,,,-00.224000000000,   2.78000,
,,,-00.223600000000,   2.76000,
,,,-00.223200000000,   2.78000,
,,,-00.222800000000,   2.78000,
,,,-00.222400000000,   2.78000,
,,,-00.222000000000,   2.78000,
,,,-00.221600000000,   2.78000,
,,,-00.221200000000,   2.78000,
,,,-00.220800000000,   2.78000,
,,,-00.220400000000,   2.78000,
,,,-00.220000000000,   2.76000,
,,,-00.219600000000,   2.78000,
,,,-00.219200000000,   2.76000,
,,,-00.218800000000,   2.78000,
,,,-00.218400000000,   2.78000,
,,,-00.218000000000,   2.76000,
,,,-00.217600000000,   2.78000,
,,,-00.217200000000,   2.76000,
,,,-00.216800000000,   2.76000,
,,,-00.216400000000,   2.76000,
,,,-00.216000000000,   2.76000,
,,,-00.215600000000,   2.76000,
,,,-00.215200000000,   2.76000,
,,,-00.214800000000,   2.76000,
,,,-00.214400000000,   2.76000,
,,,-00.214000000000,   2.74000,
,,,-00.213600000000,   2.74000,
,,,-00.213200000000,   2.74000,
,,,-00.212800000000,   2.74000,
,,,-00.212400000000,   2.74000,
,,,-00.212000000000,   2.74000,
,,,-00.211600000000,   2.74000,
,,,-00.211200000000,   2.74000,
,,,-00.210800000000,   2.74000,
,,,-00.210400000000,   2.74000,
,,,-00.210000000000,   2.74000,
,,,-00.209600000000,   2.74000,
,,,-00.209200000000,   2.74000,
,,,-00.208800000000,   2.74000,
,,,-00.208400000000,   2.74000,
,,,-00.208000000000,   2.72000,
,,,-00.207600000000,   2.74000,
,,,-00.207200000000,   2.74000,
,,,-00.206800000000,   2.74000,
,,,-00.206400000000,   2.74000,
,,,-00.206000000000,   2.74000,
,,,-00.205600000000,   2.74000,
,,,-00.205200000000,   2.72000,
,,,-00.204800000000,   2.72000,
,,,-00.204400000000,   2.74000,
,,,-00.204000000000,   2.72000,
,,,-00.203600000000,   2.72000,
,,,-00.203200000000,   2.74000,
,,,-00.202800000000,   2.72000,
,,,-00.202400000000,   2.74000,
,,,-00.202000000000,   2.74000,
,,,-00.201600000000,   2.72000,
,,,-00.201200000000,   2.72000,
,,,-00.200800000000,   2.72000,
,,,-00.200400000000,   2.72000,
,,,-00.200000000000,   2.72000,
,,,-00.199600000000,   2.72000,
,,,-00.199200000000,   2.72000,
,,,-00.198800000000,   2.72000,
,,,-00.198400000000,   2.72000,
,,,-00.198000000000,   2.72000,
,,,-00.197600000000,   2.70000,
,,,-00.197200000000,   2.70000,
,,,-00.196800000000,   2.70000,
,,,-00.196400000000,   2.70000,
,,,-00.196000000000,   2.72000,
,,,-00.195600000000,   2.70000,
,,,-00.195200000000,   2.70000,
,,,-00.194800000000,   2.70000,
,,,-00.194400000000,   2.68000,
,,,-00.194000000000,   2.70000,
,,,-00.193600000000,   2.70000,
,,,-00.193200000000,   2.72000,
,,,-00.192800000000,   2.70000,
,,,-00.192400000000,   2.70000,
,,,-00.192000000000,   2.68000,
,,,-00.191600000000,   2.72000,
,,,-00.191200000000,   2.70000,
,,,-00.190800000000,   2.68000,
,,,-00.190400000000,   2.68000,
,,,-00.190000000000,   2.68000,
,,,-00.189600000000,   2.70000,
,,,-00.189200000000,   2.68000,
,,,-00.188800000000,   2.68000,
,,,-00.188400000000,   2.68000,
,,,-00.188000000000,   2.68000,
,,,-00.187600000000,   2.70000,
,,,-00.187200000000,   2.68000,
,,,-00.186800000000,   2.68000,
,,,-00.186400000000,   2.68000,
,,,-00.186000000000,   2.68000,
,,,-00.185600000000,   2.68000,
,,,-00.185200000000,   2.70000,
,,,-00.184800000000,   2.68000,
,,,-00.184400000000,   2.68000,
,,,-00.184000000000,   2.68000,
,,,-00.183600000000,   2.68000,
,,,-00.183200000000,   2.66000,
,,,-00.182800000000,   2.68000,
,,,-00.182400000000,   2.66000,
,,,-00.182000000000,   2.66000,
,,,-00.181600000000,   2.68000,
,,,-00.181200000000,   2.68000,
,,,-00.180800000000,   2.68000,
,,,-00.180400000000,   2.68000,
,,,-00.180000000000,   2.66000,
,,,-00.179600000000,   2.66000,
,,,-00.179200000000,   2.66000,
,,,-00.178800000000,   2.66000,
,,,-00.178400000000,   2.68000,
,,,-00.178000000000,   2.66000,
,,,-00.177600000000,   2.66000,
,,,-00.177200000000,   2.66000,
,,,-00.176800000000,   2.66000,
,,,-00.176400000000,   2.64000,
,,,-00.176000000000,   2.66000,
,,,-00.175600000000,   2.66000,
,,,-00.175200000000,   2.66000,
,,,-00.174800000000,   2.64000,
,,,-00.174400000000,   2.64000,
,,,-00.174000000000,   2.64000,
,,,-00.173600000000,   2.64000,
,,,-00.173200000000,   2.66000,
,,,-00.172800000000,   2.64000,
,,,-00.172400000000,   2.64000,
,,,-00.172000000000,   2.66000,
,,,-00.171600000000,   2.64000,
,,,-00.171200000000,   2.64000,
,,,-00.170800000000,   2.66000,
,,,-00.170400000000,   2.66000,
,,,-00.170000000000,   2.66000,
,,,-00.169600000000,   2.64000,
,,,-00.169200000000,   2.64000,
,,,-00.168800000000,   2.62000,
,,,-00.168400000000,   2.62000,
,,,-00.168000000000,   2.64000,
,,,-00.167600000000,   2.62000,
,,,-00.167200000000,   2.64000,
,,,-00.166800000000,   2.64000,
,,,-00.166400000000,   2.64000,
,,,-00.166000000000,   2.62000,
,,,-00.165600000000,   2.64000,
,,,-00.165200000000,   2.62000,
,,,-00.164800000000,   2.62000,
,,,-00.164400000000,   2.64000,
,,,-00.164000000000,   2.64000,
,,,-00.163600000000,   2.62000,
,,,-00.163200000000,   2.62000,
,,,-00.162800000000,   2.64000,
,,,-00.162400000000,   2.62000,
,,,-00.162000000000,   2.62000,
,,,-00.161600000000,   2.60000,
,,,-00.161200000000,   2.64000,
,,,-00.160800000000,   2.62000,
,,,-00.160400000000,   2.62000,
,,,-00.160000000000,   2.62000,
,,,-00.159600000000,   2.62000,
,,,-00.159200000000,   2.62000,
,,,-00.158800000000,   2.62000,
,,,-00.158400000000,   2.62000,
,,,-00.158000000000,   2.62000,
,,,-00.157600000000,   2.62000,
,,,-00.157200000000,   2.60000,
,,,-00.156800000000,   2.62000,
,,,-00.156400000000,   2.62000,
,,,-00.156000000000,   2.62000,
,,,-00.155600000000,   2.62000,
,,,-00.155200000000,   2.58000,
,,,-00.154800000000,   2.60000,
,,,-00.154400000000,   2.60000,
,,,-00.154000000000,   2.60000,
,,,-00.153600000000,   2.62000,
,,,-00.153200000000,   2.60000,
,,,-00.152800000000,   2.62000,
,,,-00.152400000000,   2.62000,
,,,-00.152000000000,   2.60000,
,,,-00.151600000000,   2.60000,
,,,-00.151200000000,   2.60000,
,,,-00.150800000000,   2.60000,
,,,-00.150400000000,   2.60000,
,,,-00.150000000000,   2.60000,
,,,-00.149600000000,   2.60000,
,,,-00.149200000000,   2.60000,
,,,-00.148800000000,   2.60000,
,,,-00.148400000000,   2.60000,
,,,-00.148000000000,   2.60000,
,,,-00.147600000000,   2.58000,
,,,-00.147200000000,   2.60000,
,,,-00.146800000000,   2.62000,
,,,-00.146400000000,   2.60000,
,,,-00.146000000000,   2.58000,
,,,-00.145600000000,   2.60000,
,,,-00.145200000000,   2.58000,
,,,-00.144800000000,   2.58000,
,,,-00.144400000000,   2.58000,
,,,-00.144000000000,   2.60000,
,,,-00.143600000000,   2.60000,
,,,-00.143200000000,   2.58000,
,,,-00.142800000000,   2.58000,
,,,-00.142400000000,   2.56000,
,,,-00.142000000000,   2.58000,
,,,-00.141600000000,   2.58000,
,,,-00.141200000000,   2.58000,
,,,-00.140800000000,   2.58000,
,,,-00.140400000000,   2.58000,
,,,-00.140000000000,   2.58000,
,,,-00.139600000000,   2.58000,
,,,-00.139200000000,   2.58000,
,,,-00.138800000000,   2.58000,
,,,-00.138400000000,   2.56000,
,,,-00.138000000000,   2.58000,
,,,-00.137600000000,   2.58000,
,,,-00.137200000000,   2.56000,
,,,-00.136800000000,   2.58000,
,,,-00.136400000000,   2.56000,
,,,-00.136000000000,   2.56000,
,,,-00.135600000000,   2.56000,
,,,-00.135200000000,   2.56000,
,,,-00.134800000000,   2.56000,
,,,-00.134400000000,   2.56000,
,,,-00.134000000000,   2.58000,
,,,-00.133600000000,   2.56000,
,,,-00.133200000000,   2.56000,
,,,-00.132800000000,   2.56000,
,,,-00.132400000000,   2.56000,
,,,-00.132000000000,   2.56000,
,,,-00.131600000000,   2.56000,
,,,-00.131200000000,   2.56000,
,,,-00.130800000000,   2.56000,
,,,-00.130400000000,   2.56000,
,,,-00.130000000000,   2.54000,
,,,-00.129600000000,   2.56000,
,,,-00.129200000000,   2.56000,
,,,-00.128800000000,   2.56000,
,,,-00.128400000000,   2.56000,
,,,-00.128000000000,   2.56000,
,,,-00.127600000000,   2.56000,
,,,-00.127200000000,   2.56000,
,,,-00.126800000000,   2.56000,
,,,-00.126400000000,   2.56000,
,,,-00.126000000000,   2.56000,
,,,-00.125600000000,   2.54000,
,,,-00.125200000000,   2.56000,
,,,-00.124800000000,   2.56000,
,,,-00.124400000000,   2.56000,
,,,-00.124000000000,   2.54000,
,,,-00.123600000000,   2.56000,
,,,-00.123200000000,   2.54000,
,,,-00.122800000000,   2.56000,
,,,-00.122400000000,   2.54000,
,,,-00.122000000000,   2.54000,
,,,-00.121600000000,   2.54000,
,,,-00.121200000000,   2.54000,
,,,-00.120800000000,   2.54000,
,,,-00.120400000000,   2.54000,
,,,-00.120000000000,   2.56000,
,,,-00.119600000000,   2.54000,
,,,-00.119200000000,   2.54000,
,,,-00.118800000000,   2.52000,
,,,-00.118400000000,   2.56000,
,,,-00.118000000000,   2.54000,
,,,-00.117600000000,   2.54000,
,,,-00.117200000000,   2.54000,
,,,-00.116800000000,   2.52000,
,,,-00.116400000000,   2.54000,
,,,-00.116000000000,   2.52000,
,,,-00.115600000000,   2.54000,
,,,-00.115200000000,   2.54000,
,,,-00.114800000000,   2.52000,
,,,-00.114400000000,   2.52000,
,,,-00.114000000000,   2.52000,
,,,-00.113600000000,   2.52000,
,,,-00.113200000000,   2.54000,
,,,-00.112800000000,   2.56000,
,,,-00.112400000000,   2.54000,
,,,-00.112000000000,   2.52000,
,,,-00.111600000000,   2.54000,
,,,-00.111200000000,   2.54000,
,,,-00.110800000000,   2.54000,
,,,-00.110400000000,   2.52000,
,,,-00.110000000000,   2.52000,
,,,-00.109600000000,   2.52000,
,,,-00.109200000000,   2.52000,
,,,-00.108800000000,   2.50000,
,,,-00.108400000000,   2.52000,
,,,-00.108000000000,   2.52000,
,,,-00.107600000000,   2.52000,
,,,-00.107200000000,   2.52000,
,,,-00.106800000000,   2.56000,
,,,-00.106400000000,   2.52000,
,,,-00.106000000000,   2.52000,
,,,-00.105600000000,   2.52000,
,,,-00.105200000000,   2.52000,
,,,-00.104800000000,   2.54000,
,,,-00.104400000000,   2.52000,
,,,-00.104000000000,   2.52000,
,,,-00.103600000000,   2.52000,
,,,-00.103200000000,   2.50000,
,,,-00.102800000000,   2.50000,
,,,-00.102400000000,   2.52000,
,,,-00.102000000000,   2.50000,
,,,-00.101600000000,   2.52000,
,,,-00.101200000000,   2.50000,
,,,-00.100800000000,   2.50000,
,,,-00.100400000000,   2.50000,
,,,-00.100000000000,   2.50000,
,,,-00.099600000000,   2.50000,
,,,-00.099200000000,   2.50000,
,,,-00.098800000000,   2.52000,
,,,-00.098400000000,   2.50000,
,,,-00.098000000000,   2.52000,
,,,-00.097600000000,   2.52000,
,,,-00.097200000000,   2.50000,
,,,-00.096800000000,   2.50000,
,,,-00.096400000000,   2.50000,
,,,-00.096000000000,   2.50000,
,,,-00.095600000000,   2.50000,
,,,-00.095200000000,   2.48000,
,,,-00.094800000000,   2.50000,
,,,-00.094400000000,   2.50000,
,,,-00.094000000000,   2.50000,
,,,-00.093600000000,   2.50000,
,,,-00.093200000000,   2.50000,
,,,-00.092800000000,   2.48000,
,,,-00.092400000000,   2.50000,
,,,-00.092000000000,   2.50000,
,,,-00.091600000000,   2.50000,
,,,-00.091200000000,   2.50000,
,,,-00.090800000000,   2.50000,
